Multiplicador/simulation/qsim/Multiplicador.msim.vcd
$comment
	File created using the following command:
		vcd file Multiplicador.msim.vcd -direction
$end
$date
	Sat Jul 16 17:49:01 2022
$end
$version
	ModelSim Version 10.5b
$end
$timescale
	1ps
$end

$scope module Multiplicador_vlg_vec_tst $end
$var reg 1 ! Clk $end
$var reg 16 " Multiplicador [15:0] $end
$var reg 16 # Multiplicando [15:0] $end
$var reg 1 $ St $end
$var wire 1 % Done $end
$var wire 1 & Idle $end
$var wire 1 ' Produto [31] $end
$var wire 1 ( Produto [30] $end
$var wire 1 ) Produto [29] $end
$var wire 1 * Produto [28] $end
$var wire 1 + Produto [27] $end
$var wire 1 , Produto [26] $end
$var wire 1 - Produto [25] $end
$var wire 1 . Produto [24] $end
$var wire 1 / Produto [23] $end
$var wire 1 0 Produto [22] $end
$var wire 1 1 Produto [21] $end
$var wire 1 2 Produto [20] $end
$var wire 1 3 Produto [19] $end
$var wire 1 4 Produto [18] $end
$var wire 1 5 Produto [17] $end
$var wire 1 6 Produto [16] $end
$var wire 1 7 Produto [15] $end
$var wire 1 8 Produto [14] $end
$var wire 1 9 Produto [13] $end
$var wire 1 : Produto [12] $end
$var wire 1 ; Produto [11] $end
$var wire 1 < Produto [10] $end
$var wire 1 = Produto [9] $end
$var wire 1 > Produto [8] $end
$var wire 1 ? Produto [7] $end
$var wire 1 @ Produto [6] $end
$var wire 1 A Produto [5] $end
$var wire 1 B Produto [4] $end
$var wire 1 C Produto [3] $end
$var wire 1 D Produto [2] $end
$var wire 1 E Produto [1] $end
$var wire 1 F Produto [0] $end

$scope module i1 $end
$var wire 1 G gnd $end
$var wire 1 H vcc $end
$var wire 1 I unknown $end
$var tri1 1 J devclrn $end
$var tri1 1 K devpor $end
$var tri1 1 L devoe $end
$var wire 1 M ~QUARTUS_CREATED_UNVM~~busy $end
$var wire 1 N ~QUARTUS_CREATED_ADC1~~eoc $end
$var wire 1 O ~QUARTUS_CREATED_ADC2~~eoc $end
$var wire 1 P Idle~output_o $end
$var wire 1 Q Done~output_o $end
$var wire 1 R Produto[0]~output_o $end
$var wire 1 S Produto[1]~output_o $end
$var wire 1 T Produto[2]~output_o $end
$var wire 1 U Produto[3]~output_o $end
$var wire 1 V Produto[4]~output_o $end
$var wire 1 W Produto[5]~output_o $end
$var wire 1 X Produto[6]~output_o $end
$var wire 1 Y Produto[7]~output_o $end
$var wire 1 Z Produto[8]~output_o $end
$var wire 1 [ Produto[9]~output_o $end
$var wire 1 \ Produto[10]~output_o $end
$var wire 1 ] Produto[11]~output_o $end
$var wire 1 ^ Produto[12]~output_o $end
$var wire 1 _ Produto[13]~output_o $end
$var wire 1 ` Produto[14]~output_o $end
$var wire 1 a Produto[15]~output_o $end
$var wire 1 b Produto[16]~output_o $end
$var wire 1 c Produto[17]~output_o $end
$var wire 1 d Produto[18]~output_o $end
$var wire 1 e Produto[19]~output_o $end
$var wire 1 f Produto[20]~output_o $end
$var wire 1 g Produto[21]~output_o $end
$var wire 1 h Produto[22]~output_o $end
$var wire 1 i Produto[23]~output_o $end
$var wire 1 j Produto[24]~output_o $end
$var wire 1 k Produto[25]~output_o $end
$var wire 1 l Produto[26]~output_o $end
$var wire 1 m Produto[27]~output_o $end
$var wire 1 n Produto[28]~output_o $end
$var wire 1 o Produto[29]~output_o $end
$var wire 1 p Produto[30]~output_o $end
$var wire 1 q Produto[31]~output_o $end
$var wire 1 r Clk~input_o $end
$var wire 1 s Clk~inputclkctrl_outclk $end
$var wire 1 t St~input_o $end
$var wire 1 u COUNT0|n[0]~10_combout $end
$var wire 1 v CON0|Load~0_combout $end
$var wire 1 w COUNT0|n[5]~21 $end
$var wire 1 x COUNT0|n[6]~22_combout $end
$var wire 1 y ~GND~combout $end
$var wire 1 z COUNT0|n[6]~23 $end
$var wire 1 { COUNT0|n[7]~24_combout $end
$var wire 1 | COUNT0|Equal0~0_combout $end
$var wire 1 } COUNT0|Equal0~1_combout $end
$var wire 1 ~ COUNT0|n[1]~26_combout $end
$var wire 1 !! COUNT0|n[0]~11 $end
$var wire 1 "! COUNT0|n[1]~12_combout $end
$var wire 1 #! COUNT0|n[1]~13 $end
$var wire 1 $! COUNT0|n[2]~14_combout $end
$var wire 1 %! COUNT0|n[2]~15 $end
$var wire 1 &! COUNT0|n[3]~16_combout $end
$var wire 1 '! COUNT0|n[3]~17 $end
$var wire 1 (! COUNT0|n[4]~18_combout $end
$var wire 1 )! COUNT0|n[4]~19 $end
$var wire 1 *! COUNT0|n[5]~20_combout $end
$var wire 1 +! CON0|Selector1~0_combout $end
$var wire 1 ,! CON0|state.S1~q $end
$var wire 1 -! CON0|state.S2~feeder_combout $end
$var wire 1 .! CON0|state.S2~q $end
$var wire 1 /! CON0|state~9_combout $end
$var wire 1 0! CON0|state.S3~q $end
$var wire 1 1! CON0|Selector0~0_combout $end
$var wire 1 2! CON0|state.S0~q $end
$var wire 1 3! Multiplicador[3]~input_o $end
$var wire 1 4! Multiplicador[5]~input_o $end
$var wire 1 5! Multiplicador[11]~input_o $end
$var wire 1 6! Multiplicando[0]~input_o $end
$var wire 1 7! ADD0|Soma[0]~0_combout $end
$var wire 1 8! Multiplicando[5]~input_o $end
$var wire 1 9! Multiplicando[4]~input_o $end
$var wire 1 :! Multiplicando[3]~input_o $end
$var wire 1 ;! Multiplicando[2]~input_o $end
$var wire 1 <! Multiplicando[1]~input_o $end
$var wire 1 =! ADD0|Soma[0]~1 $end
$var wire 1 >! ADD0|Soma[1]~3 $end
$var wire 1 ?! ADD0|Soma[2]~5 $end
$var wire 1 @! ADD0|Soma[3]~7 $end
$var wire 1 A! ADD0|Soma[4]~9 $end
$var wire 1 B! ADD0|Soma[5]~10_combout $end
$var wire 1 C! CON0|Ad~0_combout $end
$var wire 1 D! Multiplicando[15]~input_o $end
$var wire 1 E! Multiplicando[14]~input_o $end
$var wire 1 F! Multiplicando[13]~input_o $end
$var wire 1 G! Multiplicando[12]~input_o $end
$var wire 1 H! Multiplicando[11]~input_o $end
$var wire 1 I! Multiplicando[10]~input_o $end
$var wire 1 J! Multiplicando[9]~input_o $end
$var wire 1 K! Multiplicando[8]~input_o $end
$var wire 1 L! Multiplicando[7]~input_o $end
$var wire 1 M! Multiplicando[6]~input_o $end
$var wire 1 N! ADD0|Soma[5]~11 $end
$var wire 1 O! ADD0|Soma[6]~13 $end
$var wire 1 P! ADD0|Soma[7]~15 $end
$var wire 1 Q! ADD0|Soma[8]~17 $end
$var wire 1 R! ADD0|Soma[9]~19 $end
$var wire 1 S! ADD0|Soma[10]~21 $end
$var wire 1 T! ADD0|Soma[11]~23 $end
$var wire 1 U! ADD0|Soma[12]~25 $end
$var wire 1 V! ADD0|Soma[13]~27 $end
$var wire 1 W! ADD0|Soma[14]~29 $end
$var wire 1 X! ADD0|Soma[15]~31 $end
$var wire 1 Y! ADD0|Soma[16]~32_combout $end
$var wire 1 Z! ACC0|Saidas~37_combout $end
$var wire 1 [! ADD0|Soma[15]~30_combout $end
$var wire 1 \! ACC0|Saidas~36_combout $end
$var wire 1 ]! ACC0|Saidas[16]~38_combout $end
$var wire 1 ^! ADD0|Soma[14]~28_combout $end
$var wire 1 _! ACC0|Saidas~35_combout $end
$var wire 1 `! ADD0|Soma[13]~26_combout $end
$var wire 1 a! ACC0|Saidas~34_combout $end
$var wire 1 b! ADD0|Soma[12]~24_combout $end
$var wire 1 c! ACC0|Saidas~33_combout $end
$var wire 1 d! ADD0|Soma[11]~22_combout $end
$var wire 1 e! ACC0|Saidas~32_combout $end
$var wire 1 f! ADD0|Soma[10]~20_combout $end
$var wire 1 g! ACC0|Saidas~31_combout $end
$var wire 1 h! ADD0|Soma[9]~18_combout $end
$var wire 1 i! ACC0|Saidas~30_combout $end
$var wire 1 j! ADD0|Soma[8]~16_combout $end
$var wire 1 k! ACC0|Saidas~29_combout $end
$var wire 1 l! ADD0|Soma[7]~14_combout $end
$var wire 1 m! ACC0|Saidas~28_combout $end
$var wire 1 n! ADD0|Soma[6]~12_combout $end
$var wire 1 o! ACC0|Saidas~27_combout $end
$var wire 1 p! ACC0|Saidas~26_combout $end
$var wire 1 q! ADD0|Soma[4]~8_combout $end
$var wire 1 r! ACC0|Saidas~25_combout $end
$var wire 1 s! ADD0|Soma[3]~6_combout $end
$var wire 1 t! ACC0|Saidas~24_combout $end
$var wire 1 u! ADD0|Soma[2]~4_combout $end
$var wire 1 v! ACC0|Saidas~23_combout $end
$var wire 1 w! ADD0|Soma[1]~2_combout $end
$var wire 1 x! ACC0|Saidas~22_combout $end
$var wire 1 y! ACC0|Saidas~21_combout $end
$var wire 1 z! Multiplicador[15]~input_o $end
$var wire 1 {! ACC0|Saidas~20_combout $end
$var wire 1 |! ACC0|Saidas[4]~5_combout $end
$var wire 1 }! Multiplicador[14]~input_o $end
$var wire 1 ~! ACC0|Saidas~19_combout $end
$var wire 1 !" Multiplicador[13]~input_o $end
$var wire 1 "" ACC0|Saidas~18_combout $end
$var wire 1 #" Multiplicador[12]~input_o $end
$var wire 1 $" ACC0|Saidas~17_combout $end
$var wire 1 %" ACC0|Saidas~16_combout $end
$var wire 1 &" Multiplicador[10]~input_o $end
$var wire 1 '" ACC0|Saidas~15_combout $end
$var wire 1 (" Multiplicador[9]~input_o $end
$var wire 1 )" ACC0|Saidas~14_combout $end
$var wire 1 *" Multiplicador[8]~input_o $end
$var wire 1 +" ACC0|Saidas~13_combout $end
$var wire 1 ," Multiplicador[7]~input_o $end
$var wire 1 -" ACC0|Saidas~12_combout $end
$var wire 1 ." Multiplicador[6]~input_o $end
$var wire 1 /" ACC0|Saidas~11_combout $end
$var wire 1 0" ACC0|Saidas~10_combout $end
$var wire 1 1" Multiplicador[4]~input_o $end
$var wire 1 2" ACC0|Saidas~9_combout $end
$var wire 1 3" ACC0|Saidas~8_combout $end
$var wire 1 4" Multiplicador[2]~input_o $end
$var wire 1 5" ACC0|Saidas~7_combout $end
$var wire 1 6" Multiplicador[1]~input_o $end
$var wire 1 7" ACC0|Saidas~6_combout $end
$var wire 1 8" Multiplicador[0]~input_o $end
$var wire 1 9" ACC0|Saidas~4_combout $end
$var wire 1 :" COUNT0|n [7] $end
$var wire 1 ;" COUNT0|n [6] $end
$var wire 1 <" COUNT0|n [5] $end
$var wire 1 =" COUNT0|n [4] $end
$var wire 1 >" COUNT0|n [3] $end
$var wire 1 ?" COUNT0|n [2] $end
$var wire 1 @" COUNT0|n [1] $end
$var wire 1 A" COUNT0|n [0] $end
$var wire 1 B" ACC0|Saidas [32] $end
$var wire 1 C" ACC0|Saidas [31] $end
$var wire 1 D" ACC0|Saidas [30] $end
$var wire 1 E" ACC0|Saidas [29] $end
$var wire 1 F" ACC0|Saidas [28] $end
$var wire 1 G" ACC0|Saidas [27] $end
$var wire 1 H" ACC0|Saidas [26] $end
$var wire 1 I" ACC0|Saidas [25] $end
$var wire 1 J" ACC0|Saidas [24] $end
$var wire 1 K" ACC0|Saidas [23] $end
$var wire 1 L" ACC0|Saidas [22] $end
$var wire 1 M" ACC0|Saidas [21] $end
$var wire 1 N" ACC0|Saidas [20] $end
$var wire 1 O" ACC0|Saidas [19] $end
$var wire 1 P" ACC0|Saidas [18] $end
$var wire 1 Q" ACC0|Saidas [17] $end
$var wire 1 R" ACC0|Saidas [16] $end
$var wire 1 S" ACC0|Saidas [15] $end
$var wire 1 T" ACC0|Saidas [14] $end
$var wire 1 U" ACC0|Saidas [13] $end
$var wire 1 V" ACC0|Saidas [12] $end
$var wire 1 W" ACC0|Saidas [11] $end
$var wire 1 X" ACC0|Saidas [10] $end
$var wire 1 Y" ACC0|Saidas [9] $end
$var wire 1 Z" ACC0|Saidas [8] $end
$var wire 1 [" ACC0|Saidas [7] $end
$var wire 1 \" ACC0|Saidas [6] $end
$var wire 1 ]" ACC0|Saidas [5] $end
$var wire 1 ^" ACC0|Saidas [4] $end
$var wire 1 _" ACC0|Saidas [3] $end
$var wire 1 `" ACC0|Saidas [2] $end
$var wire 1 a" ACC0|Saidas [1] $end
$var wire 1 b" ACC0|Saidas [0] $end
$upscope $end
$upscope $end
$enddefinitions $end
#0
$dumpvars
0!
b1011 "
b1101 #
0$
0%
1&
0F
0E
0D
0C
0B
0A
0@
0?
0>
0=
0<
0;
0:
09
08
07
06
05
04
03
02
01
00
0/
0.
0-
0,
0+
0*
0)
0(
0'
0G
1H
xI
1J
1K
1L
zM
zN
zO
1P
0Q
0R
0S
0T
0U
0V
0W
0X
0Y
0Z
0[
0\
0]
0^
0_
0`
0a
0b
0c
0d
0e
0f
0g
0h
0i
0j
0k
0l
0m
0n
0o
0p
0q
0r
0s
0t
1u
0v
1w
0x
0y
0z
0{
1|
1}
0~
0!!
0"!
1#!
0$!
0%!
0&!
1'!
0(!
0)!
0*!
0+!
0,!
0-!
0.!
0/!
00!
01!
02!
13!
04!
05!
16!
17!
08!
09!
1:!
1;!
0<!
0=!
1>!
0?!
1@!
0A!
0B!
0C!
0D!
0E!
0F!
0G!
0H!
0I!
0J!
0K!
0L!
0M!
1N!
0O!
1P!
0Q!
1R!
0S!
1T!
0U!
1V!
0W!
1X!
0Y!
0Z!
0[!
0\!
0]!
0^!
0_!
0`!
0a!
0b!
0c!
0d!
0e!
0f!
0g!
0h!
0i!
0j!
0k!
0l!
0m!
0n!
0o!
0p!
0q!
0r!
1s!
0t!
1u!
0v!
0w!
0x!
0y!
0z!
0{!
0|!
0}!
0~!
0!"
0""
0#"
0$"
0%"
0&"
0'"
0("
0)"
0*"
0+"
0,"
0-"
0."
0/"
00"
01"
02"
13"
04"
05"
16"
17"
18"
19"
0A"
0@"
0?"
0>"
0="
0<"
0;"
0:"
0b"
0a"
0`"
0_"
0^"
0]"
0\"
0["
0Z"
0Y"
0X"
0W"
0V"
0U"
0T"
0S"
0R"
0Q"
0P"
0O"
0N"
0M"
0L"
0K"
0J"
0I"
0H"
0G"
0F"
0E"
0D"
0C"
0B"
$end
#10000
1!
1r
1s
#20000
0!
0r
0s
#30000
1!
1r
1s
#40000
0!
0r
0s
#50000
1!
1r
1s
#60000
0!
0r
0s
#64000
1$
1t
1|!
1]!
1~
1v
11!
1+!
#70000
1!
1r
1s
12!
1,!
1A"
1b"
1a"
1_"
1U
1S
1R
0P
0|!
0]!
0~
0v
1C!
0|
1!!
0&
1F
1E
1C
1-!
0u
1]!
0}
0+!
1y!
1v!
1t!
1"!
1~
#80000
0!
0r
0s
#90000
1!
1r
1s
1.!
0,!
1@"
0A"
1R"
1P"
1O"
1e
1d
1b
1|!
0]!
0C!
0#!
0!!
1=!
07!
1?!
0u!
0@!
0s!
16
14
13
07"
15"
03"
1{!
0y!
1x!
0t!
1+!
0-!
0"!
1u
1]!
1#!
1w!
1s!
1q!
1$!
1"!
0$!
#100000
0!
0r
0s
#110000
1!
1r
1s
0.!
1,!
1A"
0a"
1`"
0_"
1S"
0R"
1Q"
0O"
0e
1c
0b
1a
0U
1T
0S
0|!
0]!
1C!
1!!
0=!
17!
0>!
0w!
0s!
0E
1D
0C
17
06
15
03
17"
05"
13"
0{!
0x!
0v!
0+!
1-!
0u
1]!
0#!
1>!
1w!
1u!
1y!
1r!
0"!
0u!
1$!
1x!
1v!
0v!
#120000
0!
0r
0s
#130000
1!
1r
1s
1.!
0,!
1?"
0@"
0A"
1R"
0P"
1N"
1f
0d
1b
1|!
0]!
0C!
1%!
1#!
0!!
1=!
07!
0?!
1u!
1A!
0q!
16
04
12
09"
03"
1~!
1{!
0x!
1t!
0r!
1+!
0-!
0$!
1"!
1u
1]!
0%!
0>!
0w!
1@!
1s!
1B!
1&!
1$!
0"!
1?!
0u!
0A!
1q!
0&!
0@!
0s!
0B!
1A!
0q!
1B!
#140000
0!
0r
0s
#150000
1!
1r
1s
0.!
1,!
1A"
0b"
1a"
0`"
1T"
0Q"
1O"
0N"
0f
1e
0c
1`
0T
1S
0R
0|!
0]!
1!!
1>!
1w!
1s!
0A!
1q!
0F
1E
0D
18
05
13
02
19"
13"
0~!
0{!
0y!
0t!
0+!
1-!
0u
0?!
1u!
0B!
1"!
0s!
#160000
0!
0r
0s
#170000
1!
1r
1s
1.!
0,!
1@"
0A"
1|!
1]!
0#!
0!!
07"
03"
1""
1~!
1{!
1v!
1+!
0-!
0"!
1u
1%!
1#!
0$!
1"!
0%!
1&!
1$!
0&!
#180000
0!
0r
0s
#190000
1!
1r
1s
0.!
1,!
1A"
1b"
0a"
1U"
0R"
1P"
0O"
0e
1d
0b
1_
0S
1R
0|!
0]!
1C!
1!!
0=!
17!
1?!
0u!
1@!
1s!
1F
0E
19
06
14
03
17"
13"
0""
0~!
0{!
0v!
0+!
1-!
0u
1]!
0#!
0w!
0@!
0s!
0q!
1y!
1x!
1t!
1r!
0"!
1%!
1q!
0$!
0x!
0t!
0r!
1&!
1r!
#200000
0!
0r
0s
#210000
1!
1r
1s
1.!
0,!
1>"
0?"
0@"
0A"
1R"
0P"
1N"
1f
0d
1b
1|!
0]!
0C!
0'!
0%!
1#!
0!!
1=!
07!
0?!
1u!
1A!
0q!
16
04
12
09"
07"
03"
1$"
1""
1~!
1{!
0y!
1t!
0r!
1+!
0-!
0&!
1$!
1"!
1u
1]!
1'!
1w!
1@!
1s!
1B!
1(!
1&!
0$!
0"!
0A!
1q!
0(!
0B!
#220000
0!
0r
0s
#230000
1!
1r
1s
0.!
1,!
1A"
0b"
1V"
0R"
1O"
0N"
0f
1e
0b
1^
0R
0|!
0]!
1!!
0=!
17!
0@!
0s!
0q!
0F
1:
06
13
02
19"
17"
13"
0$"
0""
0~!
0{!
0t!
0+!
1-!
0u
0w!
1q!
1"!
#240000
0!
0r
0s
#250000
1!
1r
1s
1.!
0,!
1@"
0A"
1|!
1]!
0#!
0!!
09"
07"
03"
1%"
1$"
1""
1~!
1v!
1+!
0-!
0"!
1u
1#!
1$!
1"!
0$!
#260000
0!
0r
0s
#270000
1!
1r
1s
0.!
1,!
1A"
1W"
0S"
1P"
0O"
0e
1d
0a
1]
0|!
0]!
1!!
1?!
0u!
1@!
1s!
1;
07
14
03
19"
17"
13"
0%"
0$"
0""
0~!
0v!
0+!
1-!
0u
0#!
0@!
0s!
0q!
0"!
1q!
1$!
#280000
0!
0r
0s
#290000
1!
1r
1s
1.!
0,!
1?"
0@"
0A"
1|!
1]!
1%!
1#!
0!!
09"
07"
03"
1'"
1%"
1$"
1""
1x!
1+!
0-!
0$!
1"!
1u
0'!
0%!
0&!
1$!
0"!
1'!
1(!
1&!
0(!
#300000
0!
0r
0s
#310000
1!
1r
1s
0.!
1,!
1A"
1X"
0T"
1Q"
0P"
0d
1c
0`
1\
0|!
0]!
1!!
1w!
0?!
1u!
1<
08
15
04
19"
17"
13"
0'"
0%"
0$"
0""
0x!
0+!
1-!
0u
1@!
1s!
1"!
0q!
#320000
0!
0r
0s
#330000
1!
1r
1s
1.!
0,!
1@"
0A"
1|!
1]!
0#!
0!!
09"
07"
03"
1)"
1'"
1%"
1$"
1y!
1+!
0-!
0"!
1u
1%!
1#!
0$!
1"!
0'!
0%!
0&!
1$!
1'!
1(!
1&!
0(!
#340000
0!
0r
0s
#350000
1!
1r
1s
0.!
1,!
1A"
1Y"
0U"
1R"
0Q"
0c
1b
0_
1[
0|!
0]!
1!!
1=!
07!
0w!
1=
09
16
05
19"
17"
13"
0)"
0'"
0%"
0$"
0y!
0+!
1-!
0u
0#!
1w!
0"!
1%!
0$!
0'!
0&!
1(!
#360000
0!
0r
0s
#370000
1!
1r
1s
1.!
0,!
1="
0>"
0?"
0@"
0A"
1|!
1]!
1)!
1'!
1|
0%!
1#!
0!!
09"
07"
03"
1+"
1)"
1'"
1%"
1{!
1+!
0-!
0(!
1&!
1$!
1"!
1u
0)!
1*!
1(!
0&!
0$!
0"!
0*!
#380000
0!
0r
0s
#390000
1!
1r
1s
0.!
1,!
1A"
1Z"
0V"
1S"
0R"
0b
1a
0^
1Z
0|!
0]!
0|
1!!
0=!
17!
1>
0:
17
06
19"
17"
13"
0+"
0)"
0'"
0%"
0{!
0+!
1-!
0u
0w!
1"!
#400000
0!
0r
0s
#410000
1!
1r
1s
1.!
0,!
1@"
0A"
1|!
1]!
0#!
0!!
09"
07"
03"
1-"
1+"
1)"
1'"
1~!
1+!
0-!
0"!
1u
1#!
1$!
1"!
0$!
#420000
0!
0r
0s
#430000
1!
1r
1s
0.!
1,!
1A"
1["
0W"
1T"
0S"
0a
1`
0]
1Y
0|!
0]!
1!!
1?
0;
18
07
19"
17"
13"
0-"
0+"
0)"
0'"
0~!
0+!
1-!
0u
0#!
0"!
1$!
#440000
0!
0r
0s
#450000
1!
1r
1s
1.!
0,!
1?"
0@"
0A"
1|!
1]!
1%!
1#!
0!!
09"
07"
03"
1/"
1-"
1+"
1)"
1""
1+!
0-!
0$!
1"!
1u
0%!
1&!
1$!
0"!
0&!
#460000
0!
0r
0s
#470000
1!
1r
1s
0.!
1,!
1A"
1\"
0X"
1U"
0T"
0`
1_
0\
1X
0|!
0]!
1!!
1@
0<
19
08
19"
17"
13"
0/"
0-"
0+"
0)"
0""
0+!
1-!
0u
1"!
#480000
0!
0r
0s
#490000
1!
1r
1s
1.!
0,!
1@"
0A"
1|!
1]!
0#!
0!!
09"
07"
03"
10"
1/"
1-"
1+"
1$"
1+!
0-!
0"!
1u
1%!
1#!
0$!
1"!
0%!
1&!
1$!
0&!
#500000
0!
0r
0s
#510000
1!
1r
1s
0.!
1,!
1A"
1]"
0Y"
1V"
0U"
0_
1^
0[
1W
0|!
0]!
1!!
1A
0=
1:
09
19"
17"
13"
00"
0/"
0-"
0+"
0$"
0+!
1-!
0u
0#!
0"!
1%!
0$!
1&!
#520000
0!
0r
0s
#530000
1!
1r
1s
1.!
0,!
1>"
0?"
0@"
0A"
1|!
1]!
0'!
0%!
1#!
0!!
09"
07"
03"
12"
10"
1/"
1-"
1%"
1+!
0-!
0&!
1$!
1"!
1u
1)!
1'!
0(!
1&!
0$!
0"!
0)!
1*!
1(!
0*!
#540000
0!
0r
0s
#550000
1!
1r
1s
0.!
1,!
1A"
1^"
0Z"
1W"
0V"
0^
1]
0Z
1V
0|!
0]!
1!!
1B
0>
1;
0:
19"
17"
13"
02"
00"
0/"
0-"
0%"
0+!
1-!
0u
1"!
#560000
0!
0r
0s
#570000
1!
1r
1s
1.!
0,!
1@"
0A"
1|!
1]!
0#!
0!!
09"
07"
12"
10"
1/"
1'"
1+!
0-!
0"!
1u
1#!
1$!
1"!
0$!
#580000
0!
0r
0s
#590000
1!
1r
1s
0.!
1,!
1A"
1_"
0["
1X"
0W"
0]
1\
0Y
1U
0|!
0]!
1!!
1C
0?
1<
0;
19"
17"
02"
00"
0/"
0'"
0+!
1-!
0u
0#!
0"!
1$!
#600000
0!
0r
0s
#610000
1!
1r
1s
1.!
0,!
1?"
0@"
0A"
1|!
1]!
1%!
1#!
0!!
09"
07"
15"
12"
10"
1)"
1+!
0-!
0$!
1"!
1u
0'!
0%!
0&!
1$!
0"!
1)!
1'!
0(!
1&!
0)!
1*!
1(!
0*!
#620000
0!
0r
0s
#630000
1!
1r
1s
0.!
1,!
1A"
1`"
0\"
1Y"
0X"
0\
1[
0X
1T
0|!
0]!
1!!
1D
0@
1=
0<
19"
17"
05"
02"
00"
0)"
0+!
1-!
0u
1"!
#640000
0!
0r
0s
#650000
1!
1r
1s
1.!
0,!
1@"
0A"
1|!
1]!
0#!
0!!
09"
15"
12"
1+"
1+!
0-!
0"!
1u
1%!
1#!
0$!
1"!
0'!
0%!
0&!
1$!
1)!
1'!
0(!
1&!
0)!
1*!
1(!
0*!
#660000
0!
0r
0s
#670000
1!
1r
1s
0.!
1,!
1A"
1a"
0]"
1Z"
0Y"
0[
1Z
0W
1S
0|!
0]!
1!!
1E
0A
1>
0=
19"
05"
02"
0+"
0+!
1-!
0u
0#!
0"!
1%!
0$!
0'!
0&!
1)!
0(!
1*!
#680000
0!
0r
0s
#690000
1!
1r
1s
1.!
0,!
1<"
0="
0>"
0?"
0@"
0A"
1|!
1]!
0w
0)!
1'!
1|
0%!
1#!
0!!
15"
1-"
1+!
0-!
0*!
1(!
1&!
1$!
1"!
1u
1w
1}
1x
1*!
0(!
0&!
0$!
0"!
0x
1/!
0+!
#700000
0!
0r
0s
#710000
1!
1r
1s
0.!
1A"
1b"
0^"
1["
0Z"
10!
1Q
0Z
1Y
0V
1R
0|!
0]!
0|
1!!
1F
0B
1?
0>
1%
05"
0-"
0/!
0u
01!
0}
1"!
#720000
0!
0r
0s
#730000
1!
1r
1s
02!
1@"
0A"
00!
0Q
1P
1|!
1]!
1v
0#!
0!!
1&
0%
11!
0"!
1u
1#!
1+!
1$!
1"!
0$!
#740000
0!
0r
0s
#750000
1!
1r
1s
12!
1,!
0<"
0@"
1A"
0`"
0["
0Y
0T
0P
0|!
0]!
0v
1C!
1!!
0&
0D
0?
1-!
0*!
0"!
0u
1]!
0+!
1y!
1v!
1t!
1"!
#760000
0!
0r
0s
#770000
1!
1r
1s
1.!
0,!
1@"
0A"
1R"
1P"
1O"
1e
1d
1b
1|!
0]!
0C!
0#!
0!!
1=!
07!
1?!
0u!
0@!
0s!
16
14
13
07"
15"
03"
1{!
0y!
1x!
0t!
1+!
0-!
0"!
1u
1]!
1#!
1w!
1s!
1q!
1$!
1"!
0$!
#780000
0!
0r
0s
#790000
1!
1r
1s
0.!
1,!
1A"
0a"
1`"
0_"
1S"
0R"
1Q"
0O"
0e
1c
0b
1a
0U
1T
0S
0|!
0]!
1C!
1!!
0=!
17!
0>!
0w!
0s!
0E
1D
0C
17
06
15
03
17"
05"
13"
0{!
0x!
0v!
0+!
1-!
0u
1]!
0#!
1>!
1w!
1u!
1y!
1r!
0"!
0u!
1$!
1x!
1v!
0v!
#800000
0!
0r
0s
#810000
1!
1r
1s
1.!
0,!
1?"
0@"
0A"
1R"
0P"
1N"
1f
0d
1b
1|!
0]!
0C!
1%!
1#!
0!!
1=!
07!
0?!
1u!
1A!
0q!
16
04
12
09"
03"
1~!
1{!
0x!
1t!
0r!
1+!
0-!
0$!
1"!
1u
1]!
0%!
0>!
0w!
1@!
1s!
1B!
1&!
1$!
0"!
1?!
0u!
0A!
1q!
0&!
0@!
0s!
0B!
1A!
0q!
1B!
#820000
0!
0r
0s
#830000
1!
1r
1s
0.!
1,!
1A"
0b"
1a"
0`"
1T"
0Q"
1O"
0N"
0f
1e
0c
1`
0T
1S
0R
0|!
0]!
1!!
1>!
1w!
1s!
0A!
1q!
0F
1E
0D
18
05
13
02
19"
13"
0~!
0{!
0y!
0t!
0+!
1-!
0u
0?!
1u!
0B!
1"!
0s!
#840000
0!
0r
0s
#850000
1!
1r
1s
1.!
0,!
1@"
0A"
1|!
1]!
0#!
0!!
07"
03"
1""
1~!
1{!
1v!
1+!
0-!
0"!
1u
1%!
1#!
0$!
1"!
0%!
1&!
1$!
0&!
#860000
0!
0r
0s
#870000
1!
1r
1s
0.!
1,!
1A"
1b"
0a"
1U"
0R"
1P"
0O"
0e
1d
0b
1_
0S
1R
0|!
0]!
1C!
1!!
0=!
17!
1?!
0u!
1@!
1s!
1F
0E
19
06
14
03
17"
13"
0""
0~!
0{!
0v!
0+!
1-!
0u
1]!
0#!
0w!
0@!
0s!
0q!
1y!
1x!
1t!
1r!
0"!
1%!
1q!
0$!
0x!
0t!
0r!
1&!
1r!
#880000
0!
0r
0s
#890000
1!
1r
1s
1.!
0,!
1>"
0?"
0@"
0A"
1R"
0P"
1N"
1f
0d
1b
1|!
0]!
0C!
0'!
0%!
1#!
0!!
1=!
07!
0?!
1u!
1A!
0q!
16
04
12
09"
07"
03"
1$"
1""
1~!
1{!
0y!
1t!
0r!
1+!
0-!
0&!
1$!
1"!
1u
1]!
1'!
1w!
1@!
1s!
1B!
1(!
1&!
0$!
0"!
0A!
1q!
0(!
0B!
#900000
0!
0r
0s
#910000
1!
1r
1s
0.!
1,!
1A"
0b"
1V"
0R"
1O"
0N"
0f
1e
0b
1^
0R
0|!
0]!
1!!
0=!
17!
0@!
0s!
0q!
0F
1:
06
13
02
19"
17"
13"
0$"
0""
0~!
0{!
0t!
0+!
1-!
0u
0w!
1q!
1"!
#920000
0!
0r
0s
#930000
1!
1r
1s
1.!
0,!
1@"
0A"
1|!
1]!
0#!
0!!
09"
07"
03"
1%"
1$"
1""
1~!
1v!
1+!
0-!
0"!
1u
1#!
1$!
1"!
0$!
#940000
0!
0r
0s
#950000
1!
1r
1s
0.!
1,!
1A"
1W"
0S"
1P"
0O"
0e
1d
0a
1]
0|!
0]!
1!!
1?!
0u!
1@!
1s!
1;
07
14
03
19"
17"
13"
0%"
0$"
0""
0~!
0v!
0+!
1-!
0u
0#!
0@!
0s!
0q!
0"!
1q!
1$!
#960000
0!
0r
0s
#970000
1!
1r
1s
1.!
0,!
1?"
0@"
0A"
1|!
1]!
1%!
1#!
0!!
09"
07"
03"
1'"
1%"
1$"
1""
1x!
1+!
0-!
0$!
1"!
1u
0'!
0%!
0&!
1$!
0"!
1'!
1(!
1&!
0(!
#980000
0!
0r
0s
#990000
1!
1r
1s
0.!
1,!
1A"
1X"
0T"
1Q"
0P"
0d
1c
0`
1\
0|!
0]!
1!!
1w!
0?!
1u!
1<
08
15
04
19"
17"
13"
0'"
0%"
0$"
0""
0x!
0+!
1-!
0u
1@!
1s!
1"!
0q!
#1000000
0!
0r
0s
#1010000
1!
1r
1s
1.!
0,!
1@"
0A"
1|!
1]!
0#!
0!!
09"
07"
03"
1)"
1'"
1%"
1$"
1y!
1+!
0-!
0"!
1u
1%!
1#!
0$!
1"!
0'!
0%!
0&!
1$!
1'!
1(!
1&!
0(!
#1020000
0!
0r
0s
